<?xml version="1.0" encoding="UTF-8"?>
<svg version="1.1" viewBox="0 0 23 23" xmlns="http://www.w3.org/2000/svg">
<g fill="none" fill-rule="evenodd">
<g transform="translate(-1749 -1216)" fill="#D3D7EB">
<g transform="translate(1749 1216)">
<polygon points="20.277 17.231 22.975 17.231 22.975 15.795 18.841 15.795"/>
<polygon points="17.231 5.7438 17.231 1.436 15.795 1.436 15.795 5.7438 8.7896 5.7438 10.226 7.1797 15.795 7.1797 15.795 12.75 17.231 14.186 17.231 7.1797 22.975 7.1797 22.975 5.7438 17.231 5.7438"/>
<polygon points="7.1798 1.436 5.7438 1.436 5.7438 2.698 7.1798 4.1339"/>
<path d="m4.7035e-5 1.0153l4.7285 4.7285h-4.7285v1.4359h5.7438v8.6156h-5.7438v1.4359h5.7438v4.3078h1.4359v-4.3078h8.6156v4.3078h1.4359v-3.2926l4.7285 4.7285 1.0152-1.0152-21.96-21.96-1.0152 1.0153zm7.1797 14.78v-7.6004l7.6004 7.6004h-7.6004z" fill-rule="nonzero"/>
</g>
</g>
</g>
</svg>
