<?xml version="1.0" encoding="UTF-8"?>
<svg version="1.1" viewBox="0 0 12 16" xmlns="http://www.w3.org/2000/svg">
<g fill="none" fill-rule="evenodd">
<g transform="translate(-1578 -1040)" fill="#D3D7EB">
<path d="m1584 1040c3.3137 0 6 2.6863 6 6 0 2.2091-2 5.5425-6 10-4-4.4575-6-7.7909-6-10 0-3.3137 2.6863-6 6-6zm0 4c-1.1046 0-2 0.89543-2 2s0.89543 2 2 2 2-0.89543 2-2-0.89543-2-2-2z"/>
</g>
</g>
</svg>
