<?xml version="1.0" encoding="UTF-8"?>
<svg width="17px" height="17px" viewBox="0 0 17 17" version="1.1" xmlns="http://www.w3.org/2000/svg" xmlns:xlink="http://www.w3.org/1999/xlink">
    <g stroke="none" stroke-width="1" fill="none" fill-rule="evenodd">
        <g transform="translate(-824.000000, -484.000000)">
            <g transform="translate(823.000000, 483.000000)">
                <polygon id="Path" points="0 0 19.2000003 0 19.2000003 19.2000003 0 19.2000003"></polygon>
                <path d="M15.5440002,10.3840002 C15.5760002,10.1280002 15.6000002,9.87200015 15.6000002,9.60000002 C15.6000002,9.32800014 15.5760002,9.07200014 15.5440002,8.81600013 L17.2320003,7.49600011 C17.3840003,7.37600011 17.4240003,7.16000011 17.3280003,6.9840001 L15.7280002,4.21600006 C15.6560002,4.08800006 15.5200002,4.01600006 15.3760002,4.01600006 C15.3280002,4.01600006 15.2800002,4.02400006 15.2400002,4.04000006 L13.2480002,4.84000007 C12.8320002,4.52000007 12.3840002,4.25600006 11.8960002,4.05600006 L11.5920002,1.93600003 C11.5680002,1.74400003 11.4000002,1.60000002 11.2000002,1.60000002 L8.00000012,1.60000002 C7.80000012,1.60000002 7.63200011,1.74400003 7.60800011,1.93600003 L7.30400011,4.05600006 C6.8160001,4.25600006 6.36800009,4.52800007 5.95200009,4.84000007 L3.96000006,4.04000006 C3.91200006,4.02400006 3.86400006,4.01600006 3.81600006,4.01600006 C3.68000005,4.01600006 3.54400005,4.08800006 3.47200005,4.21600006 L1.87200003,6.9840001 C1.76800003,7.16000011 1.81600003,7.37600011 1.96800003,7.49600011 L3.65600005,8.81600013 C3.62400005,9.07200014 3.60000005,9.33600014 3.60000005,9.60000002 C3.60000005,9.86400015 3.62400005,10.1280002 3.65600005,10.3840002 L1.96800003,11.7040002 C1.81600003,11.8240002 1.77600003,12.0400002 1.87200003,12.2160002 L3.47200005,14.9840002 C3.54400005,15.1120002 3.68000005,15.1840002 3.82400006,15.1840002 C3.87200006,15.1840002 3.92000006,15.1760002 3.96000006,15.1600002 L5.95200009,14.3600002 C6.36800009,14.6800002 6.8160001,14.9440002 7.30400011,15.1440002 L7.60800011,17.2640003 C7.63200011,17.4560003 7.80000012,17.6 8.00000012,17.6 L11.2000002,17.6 C11.4000002,17.6 11.5680002,17.4560003 11.5920002,17.2640003 L11.8960002,15.1440002 C12.3840002,14.9440002 12.8320002,14.6720002 13.2480002,14.3600002 L15.2400002,15.1600002 C15.2880002,15.1760002 15.3360002,15.1840002 15.3840002,15.1840002 C15.5200002,15.1840002 15.6560002,15.1120002 15.7280002,14.9840002 L17.3280003,12.2160002 C17.4240003,12.0400002 17.3840003,11.8240002 17.2320003,11.7040002 L15.5440002,10.3840002 Z M13.9600002,9.01600013 C13.9920002,9.26400014 14.0000002,9.43200014 14.0000002,9.60000014 C14.0000002,9.76800015 13.9840002,9.94400015 13.9600002,10.1840002 L13.8480002,11.0880002 L14.5600002,11.6480002 L15.4240002,12.3200002 L14.8640002,13.2880002 L13.8480002,12.8800002 L13.0160002,12.5440002 L12.2960002,13.0880002 C11.9520002,13.3440002 11.6240002,13.5360002 11.2960002,13.6720002 L10.4480002,14.0160002 L10.3200002,14.9200002 L10.1600002,16.0000002 L9.04000013,16.0000002 L8.88800013,14.9200002 L8.76000013,14.0160002 L7.91200012,13.6720002 C7.56800011,13.5280002 7.24800011,13.3440002 6.9280001,13.1040002 L6.20000009,12.5440002 L5.35200008,12.8880002 L4.33600006,13.2960002 L3.77600006,12.3280002 L4.64000007,11.6560002 L5.35200008,11.0960002 L5.24000008,10.1920002 C5.21600008,9.94400015 5.20000008,9.76000015 5.20000008,9.60000014 C5.20000008,9.44000014 5.21600008,9.25600014 5.24000008,9.01600013 L5.35200008,8.11200012 L4.64000007,7.55200011 L3.77600006,6.8800001 L4.33600006,5.91200009 L5.35200008,6.32000009 L6.18400009,6.6560001 L6.9040001,6.11200009 C7.24800011,5.85600009 7.57600011,5.66400008 7.90400012,5.52800008 L8.75200013,5.18400008 L8.88000013,4.28000006 L9.04000013,3.20000005 L10.1520002,3.20000005 L10.3040002,4.28000006 L10.4320002,5.18400008 L11.2800002,5.52800008 C11.6240002,5.67200008 11.9440002,5.85600009 12.2640002,6.09600009 L12.9920002,6.6560001 L13.8400002,6.31200009 L14.8560002,5.90400009 L15.4160002,6.8720001 L14.5600002,7.55200011 L13.8480002,8.11200012 L13.9600002,9.01600013 Z M9.60000014,6.4000001 C7.83200012,6.4000001 6.4000001,7.83200012 6.4000001,9.60000014 C6.4000001,11.3680002 7.83200012,12.8000002 9.60000014,12.8000002 C11.3680002,12.8000002 12.8000002,11.3680002 12.8000002,9.60000014 C12.8000002,7.83200012 11.3680002,6.4000001 9.60000014,6.4000001 Z M9.60000014,11.2000002 C8.72000013,11.2000002 8.00000012,10.4800002 8.00000012,9.60000014 C8.00000012,8.72000013 8.72000013,8.00000012 9.60000014,8.00000012 C10.4800002,8.00000012 11.2000002,8.72000013 11.2000002,9.60000014 C11.2000002,10.4800002 10.4800002,11.2000002 9.60000014,11.2000002 Z" id="Shape" fill="#FF9A00" fill-rule="nonzero"></path>
            </g>
        </g>
    </g>
</svg>