<?xml version="1.0" encoding="UTF-8"?>
<svg width="12px" height="17px" viewBox="0 0 12 17" version="1.1" xmlns="http://www.w3.org/2000/svg" xmlns:xlink="http://www.w3.org/1999/xlink">
    <g stroke="none" stroke-width="1" fill="none" fill-rule="evenodd">
        <g transform="translate(-1110.000000, -728.000000)" fill="#848BAB" fill-rule="nonzero">
            <g transform="translate(442.000000, 54.000000)">
                <path d="M674.400001,678.2 L674.400001,680.3 L677.200001,677.5 L674.400001,674.7 L674.400001,676.8 C671.306,676.8 668.8,679.306 668.8,682.400001 C668.8,683.499001 669.122,684.521001 669.668,685.382001 L670.69,684.360001 C670.375,683.779001 670.2,683.107001 670.2,682.400001 C670.2,680.083 672.083,678.2 674.400001,678.2 Z M679.132001,679.418 L678.110001,680.44 C678.418001,681.028 678.6,681.693001 678.6,682.400001 C678.6,684.717001 676.717001,686.600001 674.400001,686.600001 L674.400001,684.500001 L671.6,687.300001 L674.400001,690.100001 L674.400001,688.000001 C677.494001,688.000001 680.000001,685.494001 680.000001,682.400001 C680.000001,681.301 679.678001,680.279 679.132001,679.418 L679.132001,679.418 Z" id="Shape"></path>
            </g>
        </g>
    </g>
</svg>